…
d <- tibble(p_grid = seq(0, 1, length.out = n),
       prior = 1) %>%
  mutate(likelihood = dbinom(n_successes, n_trials, prob = p_grid)) %>%
  mutate(posterior = prior * likelihood / sum(prior * likelihood))

sum(d$posterior)

## [1] 1

d

## # A tibble: 1,001 x 4
##    p_grid prior likelihood posterior
##     <dbl> <dbl>      <dbl>     <dbl>
##  1  0         1   0.        0.      
##  2  0.001     1   8.37e-17  8.37e-19
##  3  0.002     1   5.34e-15  5.34e-17
##  4  0.003     1   6.07e-14  6.07e-16
##  5  0.004     1   3.40e-13  3.40e-15
##  6  0.005     1   1.29e-12  1.29e-14
##  7  0.006     1   3.85e-12  3.85e-14
##  8  0.007     1   9.68e-12  9.68e-14
##  9  0.008     1   2.15e-11  2.15e-13
## 10  0.009     1   4.34e-11  4.34e-13
## # ... with 991 more rows
…
Grid approximation of prosterior for height

#Number of points in the grid ; grid resolution
n <- 200

#Set up the grid
d_grid <- tibble(mu     =seq(140, 160, length.out = n),
                 sigma = seq(4, 9, length.out = n))

#n=200 to start, will expand to 200 x 200 = 40,000 ? --> Yes
d_grid 

## # A tibble: 200 x 2
##       mu sigma
##    <dbl> <dbl>
##  1  140   4   
##  2  140.  4.03
##  3  140.  4.05
##  4  140.  4.08
##  5  140.  4.10
##  6  141.  4.13
##  7  141.  4.15
##  8  141.  4.18
##  9  141.  4.20
## 10  141.  4.23
## # ... with 190 more rows

d_grid <- d_grid %>% expand(mu, sigma)
d_grid

## # A tibble: 40,000 x 2
##       mu sigma
##    <dbl> <dbl>
##  1   140  4   
##  2   140  4.03
##  3   140  4.05
##  4   140  4.08
##  5   140  4.10
##  6   140  4.13
##  7   140  4.15
##  8   140  4.18
##  9   140  4.20
## 10   140  4.23
## # ... with 39,990 more rows
…
Can sample from the posterior by drawing rows randomly from d_grid tbl. sample_n() can be used to draw rows randomly into a new df. Setting the weight of the sampling equal to the probability col makes the sample reflect the credibility of the parameters in the grid that are compatible with the data. The samples values of mu and sigma should also be credible in the same way as we determined the original data to be:

d_grid_samples <- d_grid %>% sample_n(size = 1e4, replace = TRUE, weight = probability)
d_grid_samples

## # A tibble: 10,000 x 7
##       mu sigma log_likelihood prior_mu prior_sigma product probability
##    <dbl> <dbl>          <dbl>    <dbl>       <dbl>   <dbl>       <dbl>
##  1  155.  7.42         -1220.    -4.60       -3.91  -1229.      0.537 
##  2  155.  7.37         -1220.    -4.59       -3.91  -1229.      0.393 
##  3  154.  8.25         -1222.    -4.63       -3.91  -1230.      0.117 
##  4  155.  7.47         -1220.    -4.58       -3.91  -1229.      0.423 
##  5  155.  7.64         -1221.    -4.56       -3.91  -1229.      0.248 
##  6  155.  7.77         -1220.    -4.58       -3.91  -1228.      0.809 
##  7  155.  8.17         -1221.    -4.59       -3.91  -1229.      0.331 
##  8  155.  7.89         -1220.    -4.57       -3.91  -1229.      0.465 
##  9  154.  7.34         -1223.    -4.65       -3.91  -1232.      0.0214
## 10  154.  7.57         -1220.    -4.63       -3.91  -1229.      0.352 
## # ... with 9,990 more rows
…
