…
Density percentiles from kde estimate

KDE estimates in the range of the variables

Density Plot with Probability Contours in 2d

Density Plot with Probability Contours in 3d

Start by reading in the data and taking a look at the format.

sample_data <- readRDS(file = "sim_anatomy_data.rds")
sample_data

## # A tibble: 300 x 3
##    ellip  curv pressure
##    <dbl> <dbl>    <dbl>
##  1  1.26  4.51     92.7
##  2  1.28  5.02    183. 
##  3  1.29  4.03    154. 
##  4  1.23  2.14    109. 
##  5  1.13  3.67    124. 
##  6  1.22  2.37    114. 
##  7  1.10  3.06    113. 
##  8  1.04  2.31    105. 
##  9  1.11  5.31    115. 
## 10  1.09  2.04    109. 
## # ... with 290 more rows
…
0
1.1135562
0.1331512
31.02793

Identify the 5% threshold value:

# 5% contour line from kd grid based on 10k MC data
percentile_5 <- kd_d3m[["cont"]]["5%"]

Verify that 5% (500/10,000) values fall below the threshold:

mc_est_tbl_10000 %>% filter(estimate <= percentile_5)

## # A tibble: 500 x 4
##     estimate ellip  curv pressure
##        <dbl> <dbl> <dbl>    <dbl>
##  1 0.000243   1.19  6.67    166. 
##  2 0.000371   1.37  2.29     81.7
##  3 0.000356   1.22  2.73    200. 
##  4 0.000134   1.27  7.91    114. 
##  5 0.000560   1.47  3.89    163. 
##  6 0.0000732  1.47  4.67    282. 
##  7 0.000527   1.29  6.13    185. 
##  8 0.000254   1.48  2.44    136. 
##  9 0.000644   1.19  6.63    135. 
## 10 0.000856   1.43  4.98    156. 
## # ... with 490 more rows
…
  t[[1, 1]]
}

Map the function over each value in the dataset.

# mc_1_to_99_tbl <- mc_est_tbl_10000 %>%
#   mutate(nearest_prob = map_dbl(estimate, get_probs_fcn))

# mc_1_to_99_tbl %>% write_rds(here::here("mc_1_to_99_tbl.rds"))
mc_1_to_99_tbl <- read_rds(here::here("mc_1_to_99_tbl.rds"))

mc_1_to_99_tbl

## # A tibble: 10,000 x 5
##    estimate ellip  curv pressure nearest_prob
##       <dbl> <dbl> <dbl>    <dbl>        <dbl>
##  1  0.0140   1.27  2.16    133.            59
##  2  0.0119   1.20  4.44    127.            52
##  3  0.00265  1.38  2.65    160.            14
##  4  0.0194   1.24  3.62    142.            75
##  5  0.0122   1.32  2.54    129.            53
##  6  0.0168   1.26  3.24    147.            68
##  7  0.00555  1.33  3.39    168.            28
##  8  0.0112   1.24  4.25    146.            50
##  9  0.00826  1.19  1.85     87.7           39
## 10  0.00197  1.32  4.14     90.5           11
## # ... with 9,990 more rows
…
