…
Get Covariance Matrix Sigma

We exponentiate the distances to give use the relationship between proximity of points to each other and their correlation. That’s all that is needed to make the covariance matrix!

sigma <- exp(-d_mat) + diag(diag_jitter, n_gaussians)

Draw Y-Values

Draw 1 value each from a bunch of normal distributions linked by the covariance matrix described above.

y_tbl <- tibble(y_draws = as.vector(rmvnorm(n = 1, mean = rep(0, length = nrow(x_tbl)), sigma = sigma))) 
y_tbl

## # A tibble: 50 x 1
##    y_draws
##      <dbl>
##  1   1.56 
##  2   1.49 
##  3   1.31 
##  4   1.08 
##  5   0.902
##  6   0.816
##  7   0.818
##  8   0.822
##  9   0.712
## 10   0.422
## # ... with 40 more rows

Combine the x’s and the y’s

Make a tibble to facilitate plotting.

gp_prior_tbl <- x_tbl %>%
  bind_cols(y_tbl)

gp_prior_tbl

## # A tibble: 50 x 2
##        x y_draws
##    <dbl>   <dbl>
##  1 0       1.56 
##  2 0.204   1.49 
##  3 0.408   1.31 
##  4 0.612   1.08 
##  5 0.816   0.902
##  6 1.02    0.816
##  7 1.22    0.818
##  8 1.43    0.822
##  9 1.63    0.712
## 10 1.84    0.422
## # ... with 40 more rows
…
