…
sens_fct <- function(dadn, E = 66000, c = 1.574e-10, m = 3.82, a = 2E-6) {
  de <- (0.7692308 / E) * (dadn / c)^(1 / m) / (pi * a)^.5
  return(de)
}

Map the Function Over Some Inputs

First, we setup a sequence of crack growth rates that might represent a reasonable range given the measurement error of striations on our fracture surface. The range covers 2 orders of magnitude. Then, we map the strain function over the inputs.

sens_tbl <- tibble(dadn = seq(from = 1E-10, to = 1E-8, length.out = 300)) %>%
  mutate(strain_amp = map_dbl(.x = dadn, .f = sens_fct))

sens_tbl

## # A tibble: 300 x 2
##        dadn strain_amp
##       <dbl>      <dbl>
##  1 1   e-10    0.00413
##  2 1.33e-10    0.00445
##  3 1.66e-10    0.00472
##  4 1.99e-10    0.00495
##  5 2.32e-10    0.00515
##  6 2.66e-10    0.00533
##  7 2.99e-10    0.00550
##  8 3.32e-10    0.00565
##  9 3.65e-10    0.00579
## 10 3.98e-10    0.00593
## # ... with 290 more rows
…
