Boundary Conditions and Anatomy - Correlated Data and Kernel Density Estimation in R · [R]eliability
…
Step 5 - Back-transform simulated data to original distribution

Step 6 - Evaluate parameters and marginal distributions of the back-transfomed data

Compare Original Data to Simulated Data

Appendix B - 2d kde plot with probability traces

Start by reading in the data and taking a look at the format.

sample_data <- readRDS(file = "sim_anatomy_data.rds")
sample_data

## # A tibble: 300 x 3
##    ellip  curv pressure
##    <dbl> <dbl>    <dbl>
##  1  1.26  4.51     92.7
##  2  1.28  5.02    183. 
##  3  1.29  4.03    154. 
##  4  1.23  2.14    109. 
##  5  1.13  3.67    124. 
##  6  1.22  2.37    114. 
##  7  1.10  3.06    113. 
##  8  1.04  2.31    105. 
##  9  1.11  5.31    115. 
## 10  1.09  2.04    109. 
## # ... with 290 more rows
…
0
1.1093556
-0.0080549
30.51151

The ks package automatically stores the quantiles of the estimate variable when calculating the kde. We can access those probability boundaries by sub-setting the kd object.

# 5% contour line from kd grid based on 10k MC data
percentile_5 <- kd_d3m[["cont"]]["5%"]

Verify that 5% (500/10,000) values fall below the threshold:

mc_est_tbl_10000 %>% filter(estimate <= percentile_5)

## # A tibble: 500 x 4
##    estimate ellip  curv pressure
##       <dbl> <dbl> <dbl>    <dbl>
##  1 0.000418  1.41  4.68    184. 
##  2 0.000377  1.30  7.27    144. 
##  3 0.000951  1.06  3.32     72.1
##  4 0.000704  1.28  7.10    125. 
##  5 0.000719  1.17  2.59     62.1
##  6 0.000114  1.47  3.18    189. 
##  7 0.000905  1.01  3.21    102. 
##  8 0.000182  1.06  5.85    103. 
##  9 0.000521  1.36  4.04    200. 
## 10 0.000742  1.40  3.58     97.4
## # ... with 490 more rows
…
  t[[1, 1]]
}

Map the function over each value in the dataset.

# mc_1_to_99_tbl <- mc_est_tbl_10000 %>%
#   mutate(nearest_prob = map_dbl(estimate, get_probs_fcn))

# mc_1_to_99_tbl %>% write_rds(here::here("mc_1_to_99_tbl.rds"))
mc_1_to_99_tbl <- read_rds(here::here("mc_1_to_99_tbl.rds"))

mc_1_to_99_tbl

## # A tibble: 10,000 x 5
##    estimate ellip  curv pressure nearest_prob
##       <dbl> <dbl> <dbl>    <dbl>        <dbl>
##  1  0.0140   1.27  2.16    133.            59
##  2  0.0119   1.20  4.44    127.            52
##  3  0.00265  1.38  2.65    160.            14
##  4  0.0194   1.24  3.62    142.            75
##  5  0.0122   1.32  2.54    129.            53
##  6  0.0168   1.26  3.24    147.            68
##  7  0.00555  1.33  3.39    168.            28
##  8  0.0112   1.24  4.25    146.            50
##  9  0.00826  1.19  1.85     87.7           39
## 10  0.00197  1.32  4.14     90.5           11
## # ... with 9,990 more rows
…
0
0.0850759
-0.4268598
3.811282

# 5% contour line from kd grid based on 10k MC data
percentile_5_n <- kd_d3m_n[["cont"]]["5%"]

Verify that 5% (500/10,000) values fall below the threshold:

mc_est_tbl_10000_n %>% filter(estimate <= percentile_5_n)

## # A tibble: 500 x 4
##    estimate ellip_n curv_n pressure_n
##       <dbl>   <dbl>  <dbl>      <dbl>
##  1   0.437   0.347   1.54        5.21
##  2   0.218   0.0546  1.20        4.28
##  3   0.346   0.114   0.375       4.43
##  4   0.340   0.121   0.382       4.96
##  5   0.0880  0.153   0.951       4.13
##  6   0.0860  0.387   1.16        5.24
##  7   0.268   0.0116  1.17        4.62
##  8   0.0957  0.0610  1.77        4.63
##  9   0.513   0.310   1.40        5.30
## 10   0.300   0.195   0.260       4.75
## # ... with 490 more rows
…
  t[[1, 1]]
}

Map the function over each value in the dataset and then the grid.

# mc_1_to_99_tbl_n <- mc_est_tbl_10000_n %>%
#   mutate(nearest_prob = map_dbl(estimate, get_probs_fcn_n))
# #
# mc_1_to_99_tbl_n %>% write_rds(here::here("mc_1_to_99_tbl_n.rds"))
mc_1_to_99_tbl_n <- read_rds(here::here("mc_1_to_99_tbl_n.rds"))

mc_1_to_99_tbl_n

## # A tibble: 10,000 x 5
##    estimate ellip_n curv_n pressure_n nearest_prob
##       <dbl>   <dbl>  <dbl>      <dbl>        <dbl>
##  1    0.548  0.116   0.515       4.36            5
##  2    8.53   0.211   1.37        4.65           70
##  3    6.86   0.262   1.40        4.76           58
##  4    1.27   0.0440  1.00        4.67           12
##  5    3.41   0.221   1.63        4.63           32
##  6    4.38   0.225   1.05        4.54           39
##  7    1.51   0.157   0.478       4.83           14
##  8    3.38   0.158   1.07        5.05           31
##  9    5.00   0.157   0.983       4.98           44
## 10    4.96   0.137   1.11        4.50           44
## # ... with 9,990 more rows
…
